{
    "count": 1225,
    "next": "https://ktm-api-v1-hmis-staging.merakitechs.com.np/api/v1/inventory-stock-app/stock-analysis?limit=10&offset=10",
    "previous": null,
    "results": [
        {
            "id": 363,
            "itemCategoryName": "other",
            "itemTypeName": "Both (Sale & Inventory)",
            "remainingQty": 82.0,
            "purchaseReturnQty": 0,
            "saleQty": 5.0,
            "saleReturnQty": 0,
            "purchaseQty": 87.0,
            "createdDateAd": "2022-10-12T13:54:58.865000+05:45",
            "createdDateBs": "2079-06-26",
            "name": "10% Dextrose 500/540ml Glass Bottle",
            "code": "D88hH3",
            "itemType": "SALEANDINVENTORY",
            "stockAlertQty": 60,
            "location": null,
            "basicInfo": null,
            "taxable": true,
            "taxRate": "0.00",
            "discountable": true,
            "expirable": true,
            "purchaseCost": "0.00",
            "saleCost": "0.00",
            "image": null,
            "ccRate": "0.00",
            "active": true,
            "createdBy": 1,
            "deviceType": 5,
            "appType": 4,
            "itemCategory": 1,
            "manufacturer": null,
            "unit": null,
            "countryOfOrigin": null
        },
        {
            "id": 365,
            "itemCategoryName": "other",
            "itemTypeName": "Both (Sale & Inventory)",
            "remainingQty": 10,
            "purchaseReturnQty": 0,
            "saleQty": 0,
            "saleReturnQty": 0,
            "purchaseQty": 0,
            "createdDateAd": "2022-10-12T13:54:58.865000+05:45",
            "createdDateBs": "2079-06-26",
            "name": "10% Dextrose 500/540ml Plastic Euro Head",
            "code": "D90hH3",
            "itemType": "SALEANDINVENTORY",
            "stockAlertQty": 60,
            "location": null,
            "basicInfo": null,
            "taxable": true,
            "taxRate": "0.00",
            "discountable": true,
            "expirable": true,
            "purchaseCost": "0.00",
            "saleCost": "0.00",
            "image": null,
            "ccRate": "0.00",
            "active": true,
            "createdBy": 1,
            "deviceType": 5,
            "appType": 4,
            "itemCategory": 1,
            "manufacturer": null,
            "unit": null,
            "countryOfOrigin": null
        },
        {
            "id": 364,
            "itemCategoryName": "other",
            "itemTypeName": "Both (Sale & Inventory)",
            "remainingQty": 100,
            "purchaseReturnQty": 0,
            "saleQty": 0,
            "saleReturnQty": 0,
            "purchaseQty": 0,
            "createdDateAd": "2022-10-12T13:54:58.865000+05:45",
            "createdDateBs": "2079-06-26",
            "name": "10% Dextrose 500/540ml Plastic (Nipple Head)",
            "code": "D89hH3",
            "itemType": "SALEANDINVENTORY",
            "stockAlertQty": 60,
            "location": null,
            "basicInfo": null,
            "taxable": true,
            "taxRate": "0.00",
            "discountable": true,
            "expirable": true,
            "purchaseCost": "0.00",
            "saleCost": "0.00",
            "image": null,
            "ccRate": "0.00",
            "active": true,
            "createdBy": 1,
            "deviceType": 5,
            "appType": 4,
            "itemCategory": 1,
            "manufacturer": null,
            "unit": null,
            "countryOfOrigin": null
        },
        {
            "id": 367,
            "itemCategoryName": "other",
            "itemTypeName": "Both (Sale & Inventory)",
            "remainingQty": 80,
            "purchaseReturnQty": 0,
            "saleQty": 0,
            "saleReturnQty": 0,
            "purchaseQty": 0,
            "createdDateAd": "2022-10-12T13:54:58.865000+05:45",
            "createdDateBs": "2079-06-26",
            "name": "10% Dextrose Saline 1000ml Plastic Euro Head",
            "code": "D92hH8",
            "itemType": "SALEANDINVENTORY",
            "stockAlertQty": 60,
            "location": null,
            "basicInfo": null,
            "taxable": true,
            "taxRate": "0.00",
            "discountable": true,
            "expirable": true,
            "purchaseCost": "0.00",
            "saleCost": "0.00",
            "image": null,
            "ccRate": "0.00",
            "active": true,
            "createdBy": 1,
            "deviceType": 5,
            "appType": 4,
            "itemCategory": 1,
            "manufacturer": null,
            "unit": null,
            "countryOfOrigin": null
        },
        {
            "id": 366,
            "itemCategoryName": "other",
            "itemTypeName": "Both (Sale & Inventory)",
            "remainingQty": 56,
            "purchaseReturnQty": 0,
            "saleQty": 0,
            "saleReturnQty": 0,
            "purchaseQty": 0,
            "createdDateAd": "2022-10-12T13:54:58.865000+05:45",
            "createdDateBs": "2079-06-26",
            "name": "10% Dextrose Saline 1000ml Plastic (Nipple Head)",
            "code": "D91hH8",
            "itemType": "SALEANDINVENTORY",
            "stockAlertQty": 60,
            "location": null,
            "basicInfo": null,
            "taxable": true,
            "taxRate": "0.00",
            "discountable": true,
            "expirable": true,
            "purchaseCost": "0.00",
            "saleCost": "0.00",
            "image": null,
            "ccRate": "0.00",
            "active": true,
            "createdBy": 1,
            "deviceType": 5,
            "appType": 4,
            "itemCategory": 1,
            "manufacturer": null,
            "unit": null,
            "countryOfOrigin": null
        },
        {
            "id": 223,
            "itemCategoryName": "other",
            "itemTypeName": "Both (Sale & Inventory)",
            "remainingQty": 343.0,
            "purchaseReturnQty": 0,
            "saleQty": 2.0,
            "saleReturnQty": 0,
            "purchaseQty": 345.0,
            "createdDateAd": "2022-10-12T13:54:58.865000+05:45",
            "createdDateBs": "2079-06-26",
            "name": "2 tablets of Levonorgesterol 75mg",
            "code": "D2c2W",
            "itemType": "SALEANDINVENTORY",
            "stockAlertQty": 60,
            "location": null,
            "basicInfo": null,
            "taxable": true,
            "taxRate": "0.00",
            "discountable": true,
            "expirable": true,
            "purchaseCost": "0.00",
            "saleCost": "0.00",
            "image": null,
            "ccRate": "0.00",
            "active": true,
            "createdBy": 1,
            "deviceType": 5,
            "appType": 4,
            "itemCategory": 1,
            "manufacturer": null,
            "unit": null,
            "countryOfOrigin": null
        },
        {
            "id": 1232,
            "itemCategoryName": "other",
            "itemTypeName": "Both (Sale & Inventory)",
            "remainingQty":180,
            "purchaseReturnQty": 0,
            "saleQty": 0,
            "saleReturnQty": 0,
            "purchaseQty": 0,
            "createdDateAd": "2022-10-12T13:54:58.865000+05:45",
            "createdDateBs": "2079-06-26",
            "name": "3 way connector (3-way cannula)",
            "code": "S00021",
            "itemType": "SALEANDINVENTORY",
            "stockAlertQty": 60,
            "location": null,
            "basicInfo": null,
            "taxable": true,
            "taxRate": "0.00",
            "discountable": true,
            "expirable": true,
            "purchaseCost": "0.00",
            "saleCost": "0.00",
            "image": null,
            "ccRate": "0.00",
            "active": true,
            "createdBy": 1,
            "deviceType": 5,
            "appType": 4,
            "itemCategory": 1,
            "manufacturer": null,
            "unit": null,
            "countryOfOrigin": null
        },
        {
            "id": 357,
            "itemCategoryName": "other",
            "itemTypeName": "Both (Sale & Inventory)",
            "remainingQty": 10,
            "purchaseReturnQty": 0,
            "saleQty": 0,
            "saleReturnQty": 0,
            "purchaseQty": 0,
            "createdDateAd": "2022-10-12T13:54:58.865000+05:45",
            "createdDateBs": "2079-06-26",
            "name": "5% Dextrose 1000ml Plaric Euro Head",
            "code": "D82hH8",
            "itemType": "SALEANDINVENTORY",
            "stockAlertQty": 60,
            "location": null,
            "basicInfo": null,
            "taxable": true,
            "taxRate": "0.00",
            "discountable": true,
            "expirable": true,
            "purchaseCost": "0.00",
            "saleCost": "0.00",
            "image": null,
            "ccRate": "0.00",
            "active": true,
            "createdBy": 1,
            "deviceType": 5,
            "appType": 4,
            "itemCategory": 1,
            "manufacturer": null,
            "unit": null,
            "countryOfOrigin": null
        },
        {
            "id": 356,
            "itemCategoryName": "other",
            "itemTypeName": "Both (Sale & Inventory)",
            "remainingQty": 65,
            "purchaseReturnQty": 0,
            "saleQty": 0,
            "saleReturnQty": 0,
            "purchaseQty": 0,
            "createdDateAd": "2022-10-12T13:54:58.865000+05:45",
            "createdDateBs": "2079-06-26",
            "name": "5% Dextrose 1000ml Plastic Nipple Head",
            "code": "D81hH7",
            "itemType": "SALEANDINVENTORY",
            "stockAlertQty": 60,
            "location": null,
            "basicInfo": null,
            "taxable": true,
            "taxRate": "0.00",
            "discountable": true,
            "expirable": true,
            "purchaseCost": "0.00",
            "saleCost": "0.00",
            "image": null,
            "ccRate": "0.00",
            "active": true,
            "createdBy": 1,
            "deviceType": 5,
            "appType": 4,
            "itemCategory": 1,
            "manufacturer": null,
            "unit": null,
            "countryOfOrigin": null
        },
        {
            "id": 354,
            "itemCategoryName": "other",
            "itemTypeName": "Both (Sale & Inventory)",
            "remainingQty": 20,
            "purchaseReturnQty": 0,
            "saleQty": 0,
            "saleReturnQty": 0,
            "purchaseQty": 0,
            "createdDateAd": "2022-10-12T13:54:58.865000+05:45",
            "createdDateBs": "2079-06-26",
            "name": "5% Dextrose 500/540ml Glass Bottle",
            "code": "D79hH3",
            "itemType": "SALEANDINVENTORY",
            "stockAlertQty": 60,
            "location": null,
            "basicInfo": null,
            "taxable": true,
            "taxRate": "0.00",
            "discountable": true,
            "expirable": true,
            "purchaseCost": "0.00",
            "saleCost": "0.00",
            "image": null,
            "ccRate": "0.00",
            "active": true,
            "createdBy": 1,
            "deviceType": 5,
            "appType": 4,
            "itemCategory": 1,
            "manufacturer": null,
            "unit": null,
            "countryOfOrigin": null
        }
    ]
}